{
  "project": {
    "ci_config_path": "",
    "git_http_url": "https://gitlab.com/gitlab-org/gitlab.git",
    "name": "GitLab",
    "web_url": "https://gitlab.com/gitlab-org/gitlab",
    "description": "GitLab is an open source end-to-end software development platform with built-in version control, issue tracking, code review, CI/CD, and more. Self-host GitLab on your own servers, in a container, or on a cloud provider.",
    "git_ssh_url": "git@gitlab.com:gitlab-org/gitlab.git",
    "avatar_url": "https://gitlab.com/uploads/-/system/project/avatar/278964/logo-extra-whitespace.png",
    "http_url": "https://gitlab.com/gitlab-org/gitlab.git",
    "ssh_url": "git@gitlab.com:gitlab-org/gitlab.git",
    "url": "git@gitlab.com:gitlab-org/gitlab.git",
    "visibility_level": 20,
    "id": 278964,
    "homepage": "https://gitlab.com/gitlab-org/gitlab",
    "namespace": "GitLab.org",
    "default_branch": "master",
    "path_with_namespace": "gitlab-org/gitlab"
  },
  "object_attributes": {
    "human_time_estimate": null,
    "last_edited_by_id": null,
    "confidential": false,
    "milestone_id": 123,
    "assignee_id": 8995688,
    "total_time_spent": 0,
    "labels": [
      {
        "title": "automation:ml",
        "created_at": "2020-12-14 19:13:46 UTC",
        "template": false,
        "description": "Issues tagged with machine learning",
        "type": "GroupLabel",
        "color": "#FFECDB",
        "group_id": 9970,
        "id": 17435956,
        "updated_at": "2020-12-14 19:13:46 UTC",
        "project_id": null
      },
      {
        "id": 2278648,
        "title": "type::bug",
        "template": false,
        "color": "#CC0000",
        "project_id": null,
        "updated_at": "2021-10-27 09:36:49 UTC",
        "type": "GroupLabel",
        "group_id": 9970,
        "description": "Issues that report undesirable or incorrect behavior. See https://about.gitlab.com/handbook/engineering/metrics/#work-type-classification",
        "created_at": "2017-07-07 20:20:34 UTC"
      },
      {
        "created_at": "2019-02-08 10:36:03 UTC",
        "template": false,
        "id": 9604785,
        "title": "Category:Fuzz Testing",
        "project_id": null,
        "updated_at": "2020-04-15 01:44:42 UTC",
        "type": "GroupLabel",
        "group_id": 9970,
        "color": "#428BCA",
        "description": "Epics and issues related to Fuzz Testing product category"
      },
      {
        "template": false,
        "project_id": null,
        "group_id": 9970,
        "description": "Issues that were incorrectly tagged by machine learning",
        "id": 17435976,
        "created_at": "2020-12-14 19:14:46 UTC",
        "title": "automation:ml wrong",
        "type": "GroupLabel",
        "color": "#FFECDB",
        "updated_at": "2020-12-14 19:14:46 UTC"
      },
      {
        "id": 10690741,
        "color": "#A8D695",
        "description": "Issues belonging to the Dynamic Analysis group of the Secure stage of the DevOps lifecycle. See https://about.gitlab.com/handbook/product/categories/#dynamic-analysis-group",
        "title": "group::dynamic analysis",
        "created_at": "2019-05-22 20:04:41 UTC",
        "updated_at": "2019-05-22 20:04:41 UTC",
        "template": false,
        "type": "GroupLabel",
        "project_id": null,
        "group_id": 9970
      }
    ],
    "updated_by_id": 4303148,
    "state": "opened",
    "relative_position": 2050427007,
    "time_change": 0,
    "author_id": 8995688,
    "id": 100951843,
    "due_date": null,
    "action": "update",
    "project_id": 278964,
    "last_edited_at": null,
    "iid": 350707,
    "duplicated_to_id": null,
    "created_at": "2022-01-20 05:33:46 UTC",
    "assignee_ids": [
      8995688
    ],
    "closed_at": null,
    "url": "https://gitlab.com/gitlab-org/gitlab/-/issues/350707",
    "updated_at": "2022-01-31 17:33:09 UTC",
    "moved_to_id": null,
    "weight": null,
    "severity": "unknown",
    "state_id": 1,
    "time_estimate": 0,
    "discussion_locked": null,
    "human_time_change": null,
    "title": "Python fuzz example not generating report",
    "human_total_time_spent": null,
    "description": "https://gitlab.com/gitlab-org/security-products/demos/coverage-fuzzing/pythonfuzz-fuzzing-example is not generating the error report after the recent changes from to `_randbelow` to `inst._randbelow`. Both the functions are generating the same random numbers but still the example is not working."
  },
  "changes": {
    "updated_at": {
      "previous": "2022-01-31 17:33:09 UTC",
      "current": "2022-01-31 17:33:09 UTC"
    },
    "updated_by_id": {
      "previous": 1786152,
      "current": 4303148
    },
    "labels": {
      "current": [
        {
          "description": "Issues tagged with machine learning",
          "project_id": null,
          "id": 17435956,
          "updated_at": "2020-12-14 19:13:46 UTC",
          "created_at": "2020-12-14 19:13:46 UTC",
          "type": "GroupLabel",
          "color": "#FFECDB",
          "template": false,
          "title": "automation:ml",
          "group_id": 9970
        },
        {
          "project_id": null,
          "created_at": "2017-07-07 20:20:34 UTC",
          "description": "Issues that report undesirable or incorrect behavior. See https://about.gitlab.com/handbook/engineering/metrics/#work-type-classification",
          "type": "GroupLabel",
          "updated_at": "2021-10-27 09:36:49 UTC",
          "color": "#CC0000",
          "group_id": 9970,
          "title": "type::bug",
          "id": 2278648,
          "template": false
        },
        {
          "group_id": 9970,
          "updated_at": "2020-04-15 01:44:42 UTC",
          "id": 9604785,
          "title": "Category:Fuzz Testing",
          "color": "#428BCA",
          "type": "GroupLabel",
          "description": "Epics and issues related to Fuzz Testing product category",
          "created_at": "2019-02-08 10:36:03 UTC",
          "template": false,
          "project_id": null
        },
        {
          "id": 17435976,
          "template": false,
          "description": "Issues that were incorrectly tagged by machine learning",
          "group_id": 9970,
          "updated_at": "2020-12-14 19:14:46 UTC",
          "color": "#FFECDB",
          "type": "GroupLabel",
          "project_id": null,
          "title": "automation:ml wrong",
          "created_at": "2020-12-14 19:14:46 UTC"
        },
        {
          "description": "Issues belonging to the Dynamic Analysis group of the Secure stage of the DevOps lifecycle. See https://about.gitlab.com/handbook/product/categories/#dynamic-analysis-group",
          "title": "group::dynamic analysis",
          "id": 10690741,
          "type": "GroupLabel",
          "group_id": 9970,
          "template": false,
          "created_at": "2019-05-22 20:04:41 UTC",
          "color": "#A8D695",
          "project_id": null,
          "updated_at": "2019-05-22 20:04:41 UTC"
        }
      ],
      "previous": [
        {
          "group_id": 9970,
          "id": 12217313,
          "description": "Issues owned by the Engineering Productivity team. More at https://about.gitlab.com/handbook/engineering/quality/engineering-productivity-team/",
          "updated_at": "2019-09-24 19:10:47 UTC",
          "template": false,
          "title": "Engineering Productivity",
          "project_id": null,
          "created_at": "2019-09-24 19:10:47 UTC",
          "type": "GroupLabel",
          "color": "#D10069"
        },
        {
          "created_at": "2020-12-14 19:13:46 UTC",
          "type": "GroupLabel",
          "group_id": 9970,
          "project_id": null,
          "color": "#FFECDB",
          "updated_at": "2020-12-14 19:13:46 UTC",
          "description": "Issues tagged with machine learning",
          "id": 17435956,
          "title": "automation:ml",
          "template": false
        },
        {
          "description": "Issues that report undesirable or incorrect behavior. See https://about.gitlab.com/handbook/engineering/metrics/#work-type-classification",
          "created_at": "2017-07-07 20:20:34 UTC",
          "group_id": 9970,
          "id": 2278648,
          "type": "GroupLabel",
          "title": "type::bug",
          "project_id": null,
          "updated_at": "2021-10-27 09:36:49 UTC",
          "template": false,
          "color": "#CC0000"
        }
      ]
    }
  },
  "user": {
    "name": "Kyle Wiebers",
    "email": "[REDACTED]",
    "avatar_url": "https://secure.gravatar.com/avatar/41def72105c7ad17cfe37c781bba2790?s=80&d=identicon",
    "username": "kwiebers",
    "id": 4303148
  },
  "event_type": "issue",
  "assignees": [
    {
      "username": "atiwari71",
      "avatar_url": "https://gitlab.com/uploads/-/system/user/avatar/8995688/avatar.png",
      "name": "Aditya Tiwari",
      "id": 8995688,
      "email": "[REDACTED]"
    }
  ],
  "labels": [
    {
      "description": "Issues tagged with machine learning",
      "template": false,
      "updated_at": "2020-12-14 19:13:46 UTC",
      "title": "automation:ml",
      "id": 17435956,
      "type": "GroupLabel",
      "project_id": null,
      "group_id": 9970,
      "created_at": "2020-12-14 19:13:46 UTC",
      "color": "#FFECDB"
    },
    {
      "description": "Issues that report undesirable or incorrect behavior. See https://about.gitlab.com/handbook/engineering/metrics/#work-type-classification",
      "id": 2278648,
      "created_at": "2017-07-07 20:20:34 UTC",
      "project_id": null,
      "updated_at": "2021-10-27 09:36:49 UTC",
      "color": "#CC0000",
      "template": false,
      "title": "type::bug",
      "type": "GroupLabel",
      "group_id": 9970
    },
    {
      "color": "#428BCA",
      "updated_at": "2020-04-15 01:44:42 UTC",
      "project_id": null,
      "title": "Category:Fuzz Testing",
      "type": "GroupLabel",
      "group_id": 9970,
      "template": false,
      "description": "Epics and issues related to Fuzz Testing product category",
      "created_at": "2019-02-08 10:36:03 UTC",
      "id": 9604785
    },
    {
      "created_at": "2020-12-14 19:14:46 UTC",
      "template": false,
      "color": "#FFECDB",
      "project_id": null,
      "id": 17435976,
      "type": "GroupLabel",
      "description": "Issues that were incorrectly tagged by machine learning",
      "group_id": 9970,
      "updated_at": "2020-12-14 19:14:46 UTC",
      "title": "automation:ml wrong"
    },
    {
      "description": "Issues belonging to the Dynamic Analysis group of the Secure stage of the DevOps lifecycle. See https://about.gitlab.com/handbook/product/categories/#dynamic-analysis-group",
      "color": "#A8D695",
      "title": "group::dynamic analysis",
      "template": false,
      "type": "GroupLabel",
      "created_at": "2019-05-22 20:04:41 UTC",
      "updated_at": "2019-05-22 20:04:41 UTC",
      "id": 10690741,
      "project_id": null,
      "group_id": 9970
    }
  ],
  "repository": {
    "name": "GitLab",
    "homepage": "https://gitlab.com/gitlab-org/gitlab",
    "description": "GitLab is an open source end-to-end software development platform with built-in version control, issue tracking, code review, CI/CD, and more. Self-host GitLab on your own servers, in a container, or on a cloud provider.",
    "url": "git@gitlab.com:gitlab-org/gitlab.git"
  },
  "object_kind": "issue"
}
